^C:\USERS\ZIFI2\DOCUMENTS\VISUAL STUDIO 2012\PROJECTS\SSMVISUALIZATION\SSMVISUALIZATOR\TEST\MAIN.OBJ
C:\PROGRAM FILES (X86)\WINDOWS KITS\8.0\LIB\WIN8\UM\X86\KERNEL32.LIB
C:\PROGRAM FILES (X86)\WINDOWS KITS\8.0\LIB\WIN8\UM\X86\USER32.LIB
C:\PROGRAM FILES (X86)\WINDOWS KITS\8.0\LIB\WIN8\UM\X86\GDI32.LIB
C:\PROGRAM FILES (X86)\WINDOWS KITS\8.0\LIB\WIN8\UM\X86\WINSPOOL.LIB
C:\PROGRAM FILES (X86)\WINDOWS KITS\8.0\LIB\WIN8\UM\X86\COMDLG32.LIB
C:\PROGRAM FILES (X86)\WINDOWS KITS\8.0\LIB\WIN8\UM\X86\ADVAPI32.LIB
C:\PROGRAM FILES (X86)\WINDOWS KITS\8.0\LIB\WIN8\UM\X86\SHELL32.LIB
C:\PROGRAM FILES (X86)\WINDOWS KITS\8.0\LIB\WIN8\UM\X86\OLE32.LIB
C:\PROGRAM FILES (X86)\WINDOWS KITS\8.0\LIB\WIN8\UM\X86\OLEAUT32.LIB
C:\PROGRAM FILES (X86)\WINDOWS KITS\8.0\LIB\WIN8\UM\X86\UUID.LIB
C:\PROGRAM FILES (X86)\WINDOWS KITS\8.0\LIB\WIN8\UM\X86\ODBC32.LIB
C:\PROGRAM FILES (X86)\WINDOWS KITS\8.0\LIB\WIN8\UM\X86\ODBCCP32.LIB
C:\USERS\ZIFI2\DOCUMENTS\VISUAL STUDIO 2012\PROJECTS\SSMVISUALIZATION\SSMVISUALIZATOR\TEST\MAIN.OBJ
C:\WINDOWS\GLOBALIZATION\SORTING\SORTDEFAULT.NLS
E:\PROGRAMS\VISUALSTUDIO2012\VC\BIN\C2.DLL
C:\USERS\ZIFI2\DOCUMENTS\VISUAL STUDIO 2012\PROJECTS\SSMVISUALIZATION\GLUT\FREEGLUT.LIB
C:\USERS\ZIFI2\DOCUMENTS\VISUAL STUDIO 2012\PROJECTS\SSMVISUALIZATION\GLUT\DEVIL.LIB
C:\USERS\ZIFI2\DOCUMENTS\VISUAL STUDIO 2012\PROJECTS\SSMVISUALIZATION\GLUT\ILUT.LIB
C:\USERS\ZIFI2\DOCUMENTS\VISUAL STUDIO 2012\PROJECTS\SSMVISUALIZATION\GLUT\ILU.LIB
E:\PROGRAMS\VISUALSTUDIO2012\VC\LIB\MSVCPRT.LIB
C:\PROGRAM FILES (X86)\WINDOWS KITS\8.0\LIB\WIN8\UM\X86\GLU32.LIB
C:\PROGRAM FILES (X86)\WINDOWS KITS\8.0\LIB\WIN8\UM\X86\OPENGL32.LIB
C:\PROGRAM FILES (X86)\WINDOWS KITS\8.0\LIB\WIN8\UM\X86\WINMM.LIB
E:\PROGRAMS\VISUALSTUDIO2012\VC\LIB\MSVCRT.LIB
E:\PROGRAMS\VISUALSTUDIO2012\VC\LIB\OLDNAMES.LIB
E:\PROGRAMS\VISUALSTUDIO2012\VC\LIB\VCOMP.LIB
E:\PROGRAMS\VISUALSTUDIO2012\VC\BIN\1049\LINKUI.DLL
C:\PROGRAM FILES (X86)\WINDOWS KITS\8.0\BIN\X86\RC.EXE
E:\PROGRAMS\VISUALSTUDIO2012\VC\BIN\CVTRES.EXE
C:\WINDOWS\SYSTEM32\TZRES.DLL
C:\WINDOWS\SYSTEM32\RSAENH.DLL
^C:\USERS\ZIFI2\DOCUMENTS\VISUAL STUDIO 2012\PROJECTS\SSMVISUALIZATION060616\SSMVISUALIZATOR\TEST\MAIN.OBJ
C:\PROGRAM FILES (X86)\WINDOWS KITS\8.0\LIB\WIN8\UM\X86\KERNEL32.LIB
C:\PROGRAM FILES (X86)\WINDOWS KITS\8.0\LIB\WIN8\UM\X86\USER32.LIB
C:\PROGRAM FILES (X86)\WINDOWS KITS\8.0\LIB\WIN8\UM\X86\GDI32.LIB
C:\PROGRAM FILES (X86)\WINDOWS KITS\8.0\LIB\WIN8\UM\X86\WINSPOOL.LIB
C:\PROGRAM FILES (X86)\WINDOWS KITS\8.0\LIB\WIN8\UM\X86\COMDLG32.LIB
C:\PROGRAM FILES (X86)\WINDOWS KITS\8.0\LIB\WIN8\UM\X86\ADVAPI32.LIB
C:\PROGRAM FILES (X86)\WINDOWS KITS\8.0\LIB\WIN8\UM\X86\SHELL32.LIB
C:\PROGRAM FILES (X86)\WINDOWS KITS\8.0\LIB\WIN8\UM\X86\OLE32.LIB
C:\PROGRAM FILES (X86)\WINDOWS KITS\8.0\LIB\WIN8\UM\X86\OLEAUT32.LIB
C:\PROGRAM FILES (X86)\WINDOWS KITS\8.0\LIB\WIN8\UM\X86\UUID.LIB
C:\PROGRAM FILES (X86)\WINDOWS KITS\8.0\LIB\WIN8\UM\X86\ODBC32.LIB
C:\PROGRAM FILES (X86)\WINDOWS KITS\8.0\LIB\WIN8\UM\X86\ODBCCP32.LIB
C:\USERS\ZIFI2\DOCUMENTS\VISUAL STUDIO 2012\PROJECTS\SSMVISUALIZATION060616\SSMVISUALIZATOR\TEST\MAIN.OBJ
C:\WINDOWS\GLOBALIZATION\SORTING\SORTDEFAULT.NLS
E:\PROGRAMS\VISUALSTUDIO2012\VC\BIN\C2.DLL
C:\USERS\ZIFI2\DOCUMENTS\VISUAL STUDIO 2012\PROJECTS\SSMVISUALIZATION060616\GLUT\FREEGLUT.LIB
C:\USERS\ZIFI2\DOCUMENTS\VISUAL STUDIO 2012\PROJECTS\SSMVISUALIZATION060616\GLUT\DEVIL.LIB
C:\USERS\ZIFI2\DOCUMENTS\VISUAL STUDIO 2012\PROJECTS\SSMVISUALIZATION060616\GLUT\ILUT.LIB
C:\USERS\ZIFI2\DOCUMENTS\VISUAL STUDIO 2012\PROJECTS\SSMVISUALIZATION060616\GLUT\ILU.LIB
E:\PROGRAMS\VISUALSTUDIO2012\VC\LIB\MSVCPRT.LIB
C:\PROGRAM FILES (X86)\WINDOWS KITS\8.0\LIB\WIN8\UM\X86\GLU32.LIB
C:\PROGRAM FILES (X86)\WINDOWS KITS\8.0\LIB\WIN8\UM\X86\OPENGL32.LIB
C:\PROGRAM FILES (X86)\WINDOWS KITS\8.0\LIB\WIN8\UM\X86\WINMM.LIB
E:\PROGRAMS\VISUALSTUDIO2012\VC\LIB\MSVCRT.LIB
E:\PROGRAMS\VISUALSTUDIO2012\VC\LIB\OLDNAMES.LIB
E:\PROGRAMS\VISUALSTUDIO2012\VC\LIB\VCOMP.LIB
E:\PROGRAMS\VISUALSTUDIO2012\VC\BIN\1049\LINKUI.DLL
C:\PROGRAM FILES (X86)\WINDOWS KITS\8.0\BIN\X86\RC.EXE
E:\PROGRAMS\VISUALSTUDIO2012\VC\BIN\CVTRES.EXE
C:\WINDOWS\SYSTEM32\TZRES.DLL
C:\WINDOWS\SYSTEM32\RSAENH.DLL
